{
    "status": 1,
    "data":
    {
        "list": [
        {
            "id": "2183",
            "title": "NEWERP系统升级通知-文字多宜电看展示的样式。文字多宜电看展示的样式文字多宜电看展示的样式文字多宜电看展示的样式",
            "create_time": "2018-09-28 13:39:22",
            "read_time": null,
            "type": "0",
            "url": "64,3",
            "is_read": "1",
            "user_no": "YD00080"
        },
        {
            "id": "2084",
            "title": "NEWERP系统升级通知-文字多宜电看展示的样式。文字多宜电看展示的样式文字多宜电看展示的样式文字多宜电看展示的样式",
            "create_time": "2018-09-28 13:39:21",
            "read_time": null,
            "type": "0",
            "url": "64,3",
            "is_read": "1",
            "user_no": "YD00080"
        },
        {
            "id": "1985",
            "title": "NEWERP系统升级通知-文字多宜电看展示的样式。文字多宜电看展示的样式文字多宜电看展示的样式文字多宜电看展示的样式",
            "create_time": "2018-09-28 13:39:20",
            "read_time": null,
            "type": "0",
            "url": "64,3",
            "is_read": "1",
            "user_no": "YD00080"
        },
        {
            "id": "1886",
            "title": "NEWERP系统升级通知-文字多宜电看展示的样式。文字多宜电看展示的样式文字多宜电看展示的样式文字多宜电看展示的样式",
            "create_time": "2018-09-28 13:39:18",
            "read_time": null,
            "type": "0",
            "url": "64,3",
            "is_read": "1",
            "user_no": "YD00080"
        },
        {
            "id": "1787",
            "title": "NEWERP系统升级通知-文字多宜电看展示的样式。文字多宜电看展示的样式文字多宜电看展示的样式文字多宜电看展示的样式",
            "create_time": "2018-09-28 13:39:17",
            "read_time": null,
            "type": "0",
            "url": "64,3",
            "is_read": "1",
            "user_no": "YD00080"
        },
        {
            "id": "1688",
            "title": "NEWERP系统升级通知-文字多宜电看展示的样式。文字多宜电看展示的样式文字多宜电看展示的样式文字多宜电看展示的样式",
            "create_time": "2018-09-28 13:39:15",
            "read_time": null,
            "type": "0",
            "url": "64,3",
            "is_read": "1",
            "user_no": "YD00080"
        },
        {
            "id": "1589",
            "title": "测试及时刷新消息个数",
            "create_time": "2018-09-28 11:56:12",
            "read_time": null,
            "type": "0",
            "url": "71,3",
            "is_read": "1",
            "user_no": "YD00080"
        },
        {
            "id": "1490",
            "title": "测试及时刷新消息个数",
            "create_time": "2018-09-28 11:56:08",
            "read_time": null,
            "type": "0",
            "url": "71,3",
            "is_read": "1",
            "user_no": "YD00080"
        },
        {
            "id": "1391",
            "title": "测试及时刷新消息个数",
            "create_time": "2018-09-28 11:56:06",
            "read_time": null,
            "type": "0",
            "url": "71,3",
            "is_read": "1",
            "user_no": "YD00080"
        },
        {
            "id": "1292",
            "title": "测试及时刷新消息个数",
            "create_time": "2018-09-28 11:56:05",
            "read_time": null,
            "type": "0",
            "url": "71,3",
            "is_read": "1",
            "user_no": "YD00080"
        },
        {
            "id": "1193",
            "title": "测试及时刷新消息个数",
            "create_time": "2018-09-28 11:56:04",
            "read_time": null,
            "type": "0",
            "url": "71,3",
            "is_read": "1",
            "user_no": "YD00080"
        },
        {
            "id": "1094",
            "title": "测试及时刷新消息个数",
            "create_time": "2018-09-28 11:56:02",
            "read_time": null,
            "type": "0",
            "url": "71,3",
            "is_read": "1",
            "user_no": "YD00080"
        },
        {
            "id": "995",
            "title": "测试及时刷新消息个数",
            "create_time": "2018-09-28 11:56:02",
            "read_time": null,
            "type": "0",
            "url": "71,3",
            "is_read": "1",
            "user_no": "YD00080"
        },
        {
            "id": "797",
            "title": "很多很多消息1",
            "create_time": "2018-09-28 11:55:44",
            "read_time": null,
            "type": "0",
            "url": "85,3",
            "is_read": "1",
            "user_no": "YD00080"
        },
        {
            "id": "896",
            "title": "很多很多消息1",
            "create_time": "2018-09-28 11:55:44",
            "read_time": null,
            "type": "0",
            "url": "85,3",
            "is_read": "1",
            "user_no": "YD00080"
        },
        {
            "id": "698",
            "title": "很多很多消息1",
            "create_time": "2018-09-28 11:55:43",
            "read_time": null,
            "type": "0",
            "url": "85,3",
            "is_read": "1",
            "user_no": "YD00080"
        },
        {
            "id": "599",
            "title": "很多很多消息1",
            "create_time": "2018-09-28 11:55:42",
            "read_time": null,
            "type": "0",
            "url": "85,3",
            "is_read": "1",
            "user_no": "YD00080"
        },
        {
            "id": "500",
            "title": "很多很多消息1",
            "create_time": "2018-09-28 11:55:41",
            "read_time": null,
            "type": "0",
            "url": "85,3",
            "is_read": "1",
            "user_no": "YD00080"
        },
        {
            "id": "401",
            "title": "很多很多消息1",
            "create_time": "2018-09-28 11:55:40",
            "read_time": null,
            "type": "0",
            "url": "85,3",
            "is_read": "1",
            "user_no": "YD00080"
        },
        {
            "id": "302",
            "title": "很多很多消息1",
            "create_time": "2018-09-28 11:55:39",
            "read_time": null,
            "type": "0",
            "url": "85,3",
            "is_read": "1",
            "user_no": "YD00080"
        }],
        "totalCount": 23,
        "totalPage": 2,
        "pageNum": 1,
        "numPerPage": 20,
        "unread_message_num": "2"
    },
    "message": "获取成功"
}